<svg width="512" height="512">	
	<rect x="0" y="0" width="512" height="512" style="fill:#09FFB1;opacity:1"/>

<g transform="translate(0.000000,512.000000) scale(0.100000,-0.100000)"
fill="#363636" stroke="none">
<path d="M373 5008 c-49 -62 -118 -153 -154 -203 -35 -49 -99 -135 -141 -190
l-78 -100 1 -1090 1 -1090 47 180 c97 367 197 651 285 808 68 123 223 301 310
358 33 22 63 39 67 39 5 0 16 -15 26 -32 15 -27 18 -57 17 -168 -1 -163 -23
-335 -69 -530 -19 -80 -75 -332 -125 -560 -50 -228 -93 -421 -95 -429 -3 -8
-19 -118 -35 -245 -29 -223 -30 -244 -30 -636 0 -223 5 -445 10 -495 30 -299
41 -378 60 -445 11 -41 27 -99 36 -127 l15 -53 265 0 c222 0 265 2 261 14 -38
98 -100 319 -108 381 -6 44 -15 112 -21 150 -6 39 -13 262 -15 497 -4 390 -3
441 17 605 11 98 25 198 30 223 25 124 195 894 225 1020 44 184 74 411 82 606
6 143 4 158 -22 268 -25 104 -35 128 -93 219 -72 115 -114 162 -189 214 -53
36 -139 63 -205 63 -76 0 -258 -79 -395 -172 -40 -27 -73 -46 -73 -42 0 4 60
85 132 182 73 96 171 227 217 291 118 162 308 394 383 468 35 34 90 77 123 97
l60 36 -367 0 -366 0 -89 -112z"/>
<path d="M1410 5116 c0 -2 22 -32 50 -66 84 -105 106 -153 129 -280 36 -195
26 -461 -35 -985 -14 -121 -34 -319 -45 -440 -10 -121 -26 -294 -34 -385 -9
-91 -20 -219 -26 -285 -20 -224 -16 -549 10 -745 51 -393 127 -646 248 -834
133 -206 402 -462 606 -578 190 -109 483 -221 767 -294 96 -25 228 -61 293
-80 317 -94 767 -138 1164 -115 104 6 250 11 324 11 75 0 164 3 198 6 l61 7 0
248 0 248 -167 -5 c-93 -2 -271 -9 -398 -15 -415 -19 -776 15 -1060 99 -55 17
-170 48 -255 70 -339 89 -622 204 -770 316 -115 86 -297 276 -350 364 -73 123
-121 299 -162 591 -25 176 -29 496 -8 696 14 139 36 389 55 615 8 96 28 292
45 435 42 366 60 609 60 809 0 149 -4 197 -30 338 -16 90 -39 185 -50 211
l-21 47 -299 0 c-165 0 -300 -2 -300 -4z"/>
<path d="M2690 5116 c0 -2 7 -23 15 -47 29 -81 44 -168 90 -505 25 -187 52
-375 61 -419 17 -90 83 -331 119 -433 68 -198 252 -534 382 -700 29 -37 81
-107 114 -156 74 -107 286 -321 414 -417 129 -97 303 -197 600 -347 214 -108
505 -234 613 -267 l22 -6 -2 267 -3 267 -125 52 c-135 56 -560 274 -675 345
-168 105 -350 272 -444 408 -33 48 -79 110 -103 139 -116 140 -271 431 -336
633 -78 240 -88 290 -147 735 -25 187 -52 365 -59 395 l-13 55 -261 3 c-144 1
-262 1 -262 -2z"/>
<path d="M4116 5108 c15 -24 389 -474 467 -563 84 -95 528 -565 534 -565 2 0
3 161 3 358 l0 358 -117 131 c-65 72 -147 167 -183 212 l-65 80 -323 1 c-251
0 -322 -3 -316 -12z"/>
<path d="M4831 5094 c20 -22 211 -192 272 -243 16 -13 17 -6 17 127 l0 142
-157 0 -156 0 24 -26z"/>
</g>
</svg>
